<?xml version="1.0" encoding="UTF-8" standalone="no"?>
<svg
   xmlns:dc="http://purl.org/dc/elements/1.1/"
   xmlns:cc="http://creativecommons.org/ns#"
   xmlns:rdf="http://www.w3.org/1999/02/22-rdf-syntax-ns#"
   xmlns:svg="http://www.w3.org/2000/svg"
   xmlns="http://www.w3.org/2000/svg"
   xmlns:sodipodi="http://sodipodi.sourceforge.net/DTD/sodipodi-0.dtd"
   xmlns:inkscape="http://www.inkscape.org/namespaces/inkscape"
   id="Product_Icon"
   data-name="Product Icon"
   viewBox="0 0 75 75"
   version="1.1"
   sodipodi:docname="lightsail_logo.svg"
   enable-background="new"
   inkscape:version="0.92.4 (5da689c313, 2019-01-14)">
  <metadata
     id="metadata39">
    <rdf:RDF>
      <cc:Work
         rdf:about="">
        <dc:format>image/svg+xml</dc:format>
        <dc:type
           rdf:resource="http://purl.org/dc/dcmitype/StillImage" />
        <dc:title>Amazon-Lightsail_light-bg</dc:title>
      </cc:Work>
    </rdf:RDF>
  </metadata>
  <defs
     id="defs37" />
  <sodipodi:namedview
     pagecolor="#ffffff"
     bordercolor="#666666"
     borderopacity="1"
     objecttolerance="10"
     gridtolerance="10"
     guidetolerance="10"
     inkscape:pageopacity="0"
     inkscape:pageshadow="2"
     inkscape:window-width="2201"
     inkscape:window-height="1118"
     id="namedview35"
     showgrid="false"
     inkscape:zoom="4.4500587"
     inkscape:cx="-41.314956"
     inkscape:cy="17.65021"
     inkscape:window-x="978"
     inkscape:window-y="128"
     inkscape:window-maximized="0"
     inkscape:current-layer="Product_Icon" />
  <title
     id="title2">Amazon-Lightsail_light-bg</title>
  <g
     id="g4716"
     transform="matrix(1.4943755,0,0,1.5213415,-18.539082,-19.550304)">
    <path
       d="M 40.5,51.39 H 40.19 A 1,1 0 0 1 39.5,50.5 c -0.65,-6.16 -3,-10.56 -6.57,-12.07 a 1,1 0 0 1 -0.53,-1.31 1,1 0 0 1 0.53,-0.53 c 3.5,-1.52 5.89,-5.92 6.57,-12.09 a 1,1 0 0 1 1.11,-0.88 1,1 0 0 1 0.62,0.32 c 2.24,2.47 6,7.52 6,13.56 0,6.42 -4.58,12 -6,13.56 A 1,1 0 0 1 40.5,51.39 Z M 35.34,37.5 c 2.86,2 4.88,5.66 5.78,10.48 1.67,-2.25 4.07,-6.23 4.07,-10.48 0,-4.25 -2.19,-8 -4.06,-10.5 -0.89,4.82 -2.92,8.5 -5.79,10.5 z"
       style="fill:#d86613;fill-opacity:1"
       id="path5"
       inkscape:connector-curvature="0" />
    <polygon
       points="32,29.41 32.35,28.35 33.41,28 32.35,27.65 32,26.59 31.65,27.65 30.6,28 31.65,28.35 "
       style="fill:#d86613;fill-opacity:1"
       id="polygon7" />
    <polygon
       points="32,25.31 32.67,27.33 34.69,28 32.67,28.67 32,30.69 31.33,28.67 29.31,28 31.33,27.33 "
       style="fill:#d86613;fill-opacity:1"
       id="polygon9" />
    <polygon
       points="50,44.41 50.35,43.35 51.41,43 50.35,42.65 50,41.59 49.65,42.65 48.59,43 49.65,43.35 "
       style="fill:#d86613;fill-opacity:1"
       id="polygon11" />
    <polygon
       points="50,40.61 50.6,42.4 52.39,43 50.6,43.6 50,45.39 49.4,43.6 47.61,43 49.4,42.4 "
       style="fill:#d86613;fill-opacity:1"
       id="polygon13" />
    <polygon
       points="30.96,48.83 31.43,47.42 32.83,46.96 31.43,46.49 30.96,45.08 30.49,46.49 29.08,46.96 30.49,47.42 "
       style="fill:#d86613;fill-opacity:1"
       id="polygon15" />
    <path
       d="M 31,50.07 30.22,47.73 27.85,47 30.18,46.22 31,43.85 l 0.78,2.33 2.33,0.78 -2.33,0.77 z M 30.69,47 l 0.2,0.06 0.07,0.2 L 31,47 31.2,46.94 31,46.87 l -0.06,-0.2 -0.07,0.2 z"
       style="fill:#d86613;fill-opacity:1"
       id="path17"
       inkscape:connector-curvature="0" />
    <path
       d="m 37.56,56.58 a 19,19 0 0 1 -18.73,-15.73 1.0143471,1.0143471 0 1 1 2,-0.34 17,17 0 1 0 0,-6 1.0160709,1.0160709 0 1 1 -2,-0.36 19,19 0 1 1 18.73,22.43 z"
       style="fill:#d86613;fill-opacity:1"
       id="path19"
       inkscape:connector-curvature="0" />
    <path
       d="m 15.5,38.5 h -2 a 1,1 0 0 1 0,-2 h 2 a 1,1 0 0 1 0,2 z"
       style="fill:#d86613;fill-opacity:1"
       id="path21"
       inkscape:connector-curvature="0" />
    <path
       d="m 20.5,38.5 h -2 a 1,1 0 0 1 0,-2 h 2 a 1,1 0 0 1 0,2 z"
       style="fill:#d86613;fill-opacity:1"
       id="path23"
       inkscape:connector-curvature="0" />
    <path
       d="m 25.5,38.5 h -2 a 1,1 0 0 1 0,-2 h 2 a 1,1 0 0 1 0,2 z"
       style="fill:#d86613;fill-opacity:1"
       id="path25"
       inkscape:connector-curvature="0" />
    <path
       d="m 30.5,38.5 h -2 a 1,1 0 0 1 0,-2 h 2 a 1,1 0 0 1 0,2 z"
       style="fill:#d86613;fill-opacity:1"
       id="path27"
       inkscape:connector-curvature="0" />
    <rect
       x="12.5"
       y="12.5"
       width="50"
       height="50"
       style="fill:none"
       id="rect29" />
  </g>
</svg>
